Econometría
…
---
layout: true
# Lo práctico en 

---

--

Regresemos a una antigua batalla (retornos de educación).

--

```
#> # A tibble: 722 × 4
#>     wage education education_dad education_mom
#>    <int>     <int>         <int>         <int>
#>  1   769        12             8             8
#>  2   808        18            14            14
#>  3   825        14            14            14
#>  4   650        12            12            12
#>  5   562        11            11             6
#>  6   600        10             8             8
#>  7  1154        15             5            14
#>  8  1000        12            11            12
#>  9   930        18            14            13
#> 10   900        15            12            12
#> # ℹ 712 more rows
```
…
